ManyBabies Power Analysis - Exercise Sheet 1, Data Simulation
…
# read saved simulation data
sims <- read_csv("sims.csv", col_types = cols(
  # makes sure plots display in this order
  group = col_factor(ordered = TRUE),
  term = col_factor(ordered = TRUE)
  ))

sims %>%
  filter(effect == "fixed") %>%
  dplyr::select(term, estimate, p.value)

# A tibble: 200 × 3
   term        estimate  p.value
   <fct>          <dbl>    <dbl>
 1 (Intercept)   11431. 9.82e-21
 2 SpeechStyle    2227. 6.33e- 3
 3 (Intercept)   11965. 2.20e-21
 4 SpeechStyle    1909. 2.57e- 2
 5 (Intercept)   12007. 1.02e-21
 6 SpeechStyle    1596. 3.52e- 2
 7 (Intercept)   11995. 1.31e-20
 8 SpeechStyle    3166. 2.76e- 4
 9 (Intercept)   13041. 5.13e-22
10 SpeechStyle    3363. 2.23e- 4
# ℹ 190 more rows
…
