ManyBabies Power Analysis - Part II, Modelling the Simulated Data
…
write_csv(sims, "sims.csv")

# read saved simulation data
sims <- read_csv("sims.csv", col_types = cols(
  # makes sure plots display in this order
  group = col_factor(ordered = TRUE),
  term = col_factor(ordered = TRUE)
  ))

sims %>%
  filter(effect == "fixed") %>%
  dplyr::select(term, estimate, p.value)

# A tibble: 200 × 3
   term        estimate  p.value
   <fct>          <dbl>    <dbl>
 1 (Intercept)   10533. 2.33e-18
 2 SpeechStyle    2199. 1.71e- 5
 3 (Intercept)   10095. 4.09e-16
 4 SpeechStyle     919. 4.81e- 2
 5 (Intercept)   10092. 1.15e-18
 6 SpeechStyle    1761. 1.63e- 3
 7 (Intercept)    9562. 4.39e-16
 8 SpeechStyle    1522. 7.51e- 4
 9 (Intercept)    9400. 3.20e-18
10 SpeechStyle    2617. 9.91e- 6
# ℹ 190 more rows
…
